

********************************************************************************
* DUPLICATOR-LITE: INSTALL-LOG
* STEP-3 START @ 12:19:18
* NOTICE: Do NOT post to public sites or forums
********************************************************************************
CHARSET SERVER:	
CHARSET CLIENT:	
--------------------------------------
SERIALIZER ENGINE
[*] scan every column
[~] scan only text columns
[^] no searchable columns
--------------------------------------
--------------------------------------
Search1:	'' 
Change1:	'' 
Search2:	'' 
Change2:	'' 
Search3:	'null' 
Change3:	'null' 
Search4:	'null' 
Change4:	'null' 
Search5:	'' 
Change5:	'' 
Search6:	'' 
Change6:	'' 
Search7:	'' 
Change7:	'' 
SCANNED:	Tables:0 	|	 Rows:0 	|	 Cells:0 
UPDATED:	Tables:0 	|	 Rows:0 	|	 Cells:0 
ERRORS:		0 
RUNTIME:	0.000000 sec

====================================
START FINAL CLEANUP: 

UPDATED WP-CONFIG: /wp-config.php' (if present)

====================================
NOTICES
====================================

NOTICE: The wp-config.php has the following values set [WP_SITEURL, WP_HOME]. 
Please validate these values are correct in your wp-config.php file.  See the codex link for more details: https://codex.wordpress.org/Editing_wp-config.php

STEP 3 COMPLETE @ 12:19:18 - RUNTIME: 0.0072 sec.


